<?xml version="1.0" encoding="UTF-8"?>
<svg xmlns="http://www.w3.org/2000/svg" viewBox="0 0 604 169">
 <style type="text/css">.st0{fill:#7289DA;}</style>
 <g>
  <title>Layer 1</title>
  <path id="svg_1" d="m89.6,70.8c-4.7,0 -8.4,4.1 -8.4,9.1s3.8,9.1 8.4,9.1c4.7,0 8.4,-4.1 8.4,-9.1s-3.8,-9.1 -8.4,-9.1zm-30.2,0c-4.7,0 -8.4,4.1 -8.4,9.1s3.8,9.1 8.4,9.1c4.7,0 8.4,-4.1 8.4,-9.1c0.1,-5 -3.7,-9.1 -8.4,-9.1zm70.4,-68.8l-110.8,0c-9.3,0 -17,7.6 -17,17l0,110.8c0,9.3 7.6,17 17,17l93.8,0l-4.4,-15.1l10.6,9.8l10,9.2l17.8,15.3l0,-147c-0.1,-9.4 -7.7,-17 -17,-17zm-31.9,107.1c0,0 -3,-3.6 -5.5,-6.6c10.8,-3.1 15,-9.8 15,-9.8c-3.4,2.2 -6.6,3.8 -9.5,4.9c-4.1,1.7 -8.1,2.8 -12,3.6c-7.9,1.5 -15.2,1.1 -21.4,-0.1c-4.7,-0.9 -8.8,-2.1 -12.2,-3.6c-1.9,-0.7 -4,-1.7 -6,-2.8c-0.2,-0.2 -0.5,-0.2 -0.7,-0.4c-0.2,-0.1 -0.2,-0.2 -0.3,-0.2c-1.5,-0.8 -2.3,-1.4 -2.3,-1.4s4,6.5 14.5,9.7c-2.5,3.1 -5.5,6.8 -5.5,6.8c-18.3,-0.6 -25.2,-12.5 -25.2,-12.5c0,-26.4 11.9,-47.8 11.9,-47.8c11.9,-8.8 23.2,-8.6 23.2,-8.6l0.8,1c-14.9,4.2 -21.7,10.7 -21.7,10.7s1.8,-1 4.9,-2.3c8.8,-3.9 15.9,-4.9 18.8,-5.2c0.5,-0.1 0.9,-0.2 1.4,-0.2c5,-0.7 10.7,-0.8 16.7,-0.2c7.9,0.9 16.3,3.2 24.9,7.9c0,0 -6.5,-6.2 -20.6,-10.4l1.2,-1.3c0,0 11.3,-0.2 23.2,8.6c0,0 11.9,21.4 11.9,47.8c-0.3,-0.1 -7.3,11.8 -25.5,12.4zm124.8,-71.7l-27.4,0l0,30.8l18.3,16.5l0,-29.9l9.8,0c6.2,0 9.3,3 9.3,7.8l0,22.9c0,4.8 -2.9,8 -9.3,8l-28.2,0l0,17.4l27.5,0c14.7,0.1 28.5,-7.3 28.5,-24.1l0,-24.6c0.1,-17.3 -13.8,-24.8 -28.5,-24.8zm143.9,49.4l0,-25.3c0,-9.1 16.4,-11.2 21.3,-2.1l15.1,-6.1c-6,-13.1 -16.8,-16.9 -25.8,-16.9c-14.7,0 -29.3,8.5 -29.3,25.1l0,25.3c0,16.7 14.6,25.1 28.9,25.1c9.3,0 20.3,-4.5 26.5,-16.5l-16.2,-7.4c-3.9,10.1 -20.5,7.6 -20.5,-1.2zm-50,-21.9c-5.7,-1.2 -9.5,-3.3 -9.8,-6.9c0.3,-8.5 13.5,-8.8 21.2,-0.7l12.2,-9.3c-7.6,-9.3 -16.2,-11.7 -25.1,-11.7c-13.5,0 -26.5,7.6 -26.5,22c0,14 10.7,21.5 22.6,23.3c6,0.8 12.7,3.2 12.6,7.4c-0.5,7.9 -16.7,7.4 -24.1,-1.5l-11.7,11c6.9,8.8 16.2,13.3 25,13.3c13.5,0 28.4,-7.8 29,-22c0.7,-17.9 -12.4,-22.5 -25.4,-24.9zm-55.4,45.9l18.5,0l0,-73.4l-18.5,0l0,73.4zm312.3,-73.4l-27.5,0l0,30.8l18.3,16.5l0,-29.9l9.8,0c6.2,0 9.3,3 9.3,7.8l0,22.9c0,4.8 -2.9,8 -9.3,8l-28.1,0l0,17.4l27.5,0c14.7,0.1 28.5,-7.3 28.5,-24.1l0,-24.6c0,-17.3 -13.8,-24.8 -28.5,-24.8zm-134.7,-1c-15.2,0 -30.3,8.3 -30.3,25.2l0,25.1c0,16.8 15.2,25.2 30.5,25.2c15.2,0 30.3,-8.4 30.3,-25.2l0,-25.1c0,-16.8 -15.3,-25.2 -30.5,-25.2zm11.9,50.3c0,5.3 -6,8 -11.8,8c-6,0 -11.9,-2.6 -11.9,-8l0,-25.1c0,-5.4 5.8,-8.3 11.6,-8.3c6,0 12.2,2.6 12.2,8.3l0,25.1l-0.1,0zm85.1,-25.1c-0.4,-17.2 -12.2,-24.1 -27.3,-24.1l-29.3,0l0,73.4l18.8,0l0,-23.3l3.3,0l17,23.3l23.2,0l-20,-25.2c8.8,-2.8 14.3,-10.5 14.3,-24.1zm-27,10l-10.9,0l0,-16.8l10.9,0c11.7,0 11.7,16.8 0,16.8z" class="st0"/>
 </g>
</svg>